{
  "title": "Employee resource",
  "description": "Employee resource object",
  "type": "object",
  "properties": {
  "entity": true,
    "id": {
      "description": "employee id",
      "type": "integer"
    },
    "first_name": {
      "description": "first name",
      "type": "string",
      "minLength": 1,
      "maxLength": 255
    },
    "last_name": {
      "description": "last name",
      "type": "string",
      "minLength": 1,
      "maxLength": 255
    },
    "date_of_birth": {
      "description": "Date Of Birth",
      "type": "string",
      "minLength": 1,
      "maxLength": 10
    },
    "address": {
      "description": "Address",
      "type": "object",
      "properties": {
	      "line1": {
	      "description": "line1",
	      "type": "string",
	      "minLength": 1,
	      "maxLength": 255
	    },
	    "line2": {
	      "description": "line2",
	      "type": "string"
    	},
    	 "city": {
	      "description": "city",
	      "type": "string",
	      "minLength": 1,
	      "maxLength": 50
	    },
	     "state": {
	      "description": "state",
	      "type": "string",
	      "minLength": 1,
	      "maxLength": 255
	    },
	     "country": {
	      "description": "country",
	      "type": "string",
	      "minLength": 1,
	      "maxLength": 255
	    },
	    "zip_code": {
	      "description": "zip_code",
	      "type": "number",
	      "minLength": 1,
	      "maxLength": 7
	    }	    
      }
    }
  },
  "required": [
    "first_name",
    "last_name",
    "address.zip_code",
    "address.state",
    "address.country",
    "address.city"
  ]
}